let explode = s => List.init(String.length(s), String.get(s))

let isDigit = char => {
  let c = Char.code(char)
  c >= 48 && c <= 57
}

let isStringOfDigits = s =>
  if String.length(s) === 0 {
    false
  } else {
    List.fold_right((c, x) => isDigit(c) && x, explode(s), true)
  }

let bigintOfString = (t: string): option<Bigint.t> =>
  if isStringOfDigits(t) {
    Some(Bigint.of_string(t))
  } else {
    None
  }

let bigintEncode = t => Json.Encode.string(Bigint.to_string(t))
let bigintDecode = json =>
  switch Json.Decode.string(json) {
  | v =>
    switch bigintOfString(v) {
    | Some(v) => Belt.Result.Ok(v)
    | None => Belt.Result.Error("bigintDecode failed: " ++ v)
    }
  | exception Json.Decode.DecodeError(error) => Belt.Result.Error("bigintDecode failed: " ++ error)
  }

let floatOfString = (x: string): option<float> =>
  try Some(float_of_string(x)) catch {
  | Failure(_) => None
  }

let int64OfString = (x: string): option<Int64.t> =>
  try Some(Int64.of_string(x)) catch {
  | Failure(_) => None
  }

let explode = s => {
  let rec exp = (i, l) =>
    if i < 0 {
      l
    } else {
      exp(i - 1, list{String.get(s, i), ...l})
    }
  exp(String.length(s) - 1, list{})
}

let getPositionOfSmallestNonZero = (float: float): int => {
  let floatString = Js.Float.toString(float)
  let split = Js.String.split(".", floatString)
  if Array.length(split) == 1 {
    0
  } else if Array.length(split) == 2 {
    let str = split[1]
    let chars = explode(str)
    let length = List.length(chars)
    let charsRev = List.rev(chars)

    let (i, _b) = List.fold_left(((l, finished), char) =>
      if finished {
        (l, finished)
      } else if char == '0' {
        (l - 1, false)
      } else {
        (l, true)
      }
    , (length, false), charsRev)
    i
  } else {
    0
  }
}

let rec repeatString = (n, s) =>
  if n == 0 {
    ""
  } else {
    s ++ repeatString(n - 1, s)
  }

let rec pow = (a, x) =>
  switch x {
  | 0 => 1
  | 1 => a
  | n =>
    let b = pow(a, n / 2)
    b *
    b * if mod(n, 2) == 0 {
      1
    } else {
      a
    }
  }

let decodeSafeList = (decode: Js.Json.t => Belt.Result.t<'a, string>, json: Js.Json.t): list<'a> =>
  if Js.Array.isArray(json) {
    let source: array<Js.Json.t> = Obj.magic((json: Js.Json.t))
    let length = Js.Array.length(source)
    let output = ref(list{})
    for i in 0 to length - 1 {
      let value = decode(Array.unsafe_get(source, i))
      switch value {
      | Belt.Result.Ok(value) => output := List.append(output.contents, list{value})
      | Belt.Result.Error(_) => ()
      }
    }
    output.contents
  } else {
    \"@@"(raise, Json.Decode.DecodeError("Expected array, got " ++ Js.Json.stringify(json)))
  }

let getDecimalsCount = (floatString: string): int => {
  let split: array<string> = Js.String.split(".", floatString)
  if Js.Array.length(split) == 2 {
    switch Belt.Array.get(split, 1) {
    | Some(rightHandSide) => Js.String.length(rightHandSide)
    | None => 0
    }
  } else {
    0
  }
}

let addCommas: string => string = %raw(`
    function (s) {
      var sp = s.split(".");
      var l = sp[0].replace(/(\\d)(?=(\\d\\d\\d)+(?!\\d))/g, "$1,");
      if (sp.length > 1) {
        return l.concat(".", sp[1]);
      } else {
        return l;
      }
    }
     `)

let unwrapResult = r =>
  switch r {
  | Belt.Result.Ok(v) => v
  | Belt.Result.Error(message) => \"@@"(raise, Json.Decode.DecodeError(message))
  }

let wrapResult = (decoder, json) =>
  switch decoder(json) {
  | v => Belt.Result.Ok(v)
  | exception Json.Decode.DecodeError(message) => Belt.Result.Error(message)
  }
